%YAML 1.1
%TAG !u! tag:unity3d.com,2011:
--- !u!114 &11400000
MonoBehaviour:
  m_ObjectHideFlags: 0
  m_CorrespondingSourceObject: {fileID: 0}
  m_PrefabInstance: {fileID: 0}
  m_PrefabAsset: {fileID: 0}
  m_GameObject: {fileID: 0}
  m_Enabled: 1
  m_EditorHideFlags: 0
  m_Script: {fileID: -1893448595, guid: a040fb66244a7f54289914d98ea4ef7d, type: 3}
  m_Name: score
  m_EditorClassIdentifier: 
  _data:
    _json: '{"graph":{"variables":{"collection":{"$content":[],"$version":"A"},"$version":"A"},"controlInputDefinitions":[],"controlOutputDefinitions":[],"valueInputDefinitions":[],"valueOutputDefinitions":[],"title":null,"summary":null,"pan":{"x":-339.7331,"y":52.18864},"zoom":0.7499999,"elements":[{"coroutine":false,"defaultValues":{},"position":{"x":-341.0,"y":-156.0},"guid":"ed5b9719-b571-4a6d-b134-f477f7063110","$version":"A","$type":"Bolt.Update","$id":"9"},{"chainable":false,"member":{"name":"text","parameterTypes":null,"targetType":"UnityEngine.UI.Text","targetTypeName":"UnityEngine.UI.Text","$version":"A"},"defaultValues":{"target":null,"input":{"$content":"","$type":"System.String"}},"position":{"x":5.0,"y":-127.0},"guid":"e5c67f32-cd04-4581-a283-907fc5e3544b","$version":"A","$type":"Bolt.SetMember","$id":"11"},{"chainable":false,"member":{"name":"ToString","parameterTypes":[],"targetType":"System.Int32","targetTypeName":"System.Int32","$version":"A"},"defaultValues":{"target":{"$content":0,"$type":"System.Int32"}},"position":{"x":-164.0,"y":-66.0},"guid":"05f3fc4c-cfce-4399-bf75-bfc020c22e31","$version":"A","$type":"Bolt.InvokeMember","$id":"14"},{"specifyFallback":false,"kind":"Scene","defaultValues":{"name":{"$content":"Score","$type":"System.String"}},"position":{"x":-343.0,"y":-68.0},"guid":"b9a8757e-53c8-4698-a04e-2e8bef46249d","$version":"A","$type":"Bolt.GetVariable","$id":"17"},{"sourceUnit":{"$ref":"9"},"sourceKey":"trigger","destinationUnit":{"$ref":"14"},"destinationKey":"enter","guid":"6ad98441-2336-4bf9-b597-463cb1bc3a44","$type":"Bolt.ControlConnection"},{"sourceUnit":{"$ref":"14"},"sourceKey":"exit","destinationUnit":{"$ref":"11"},"destinationKey":"assign","guid":"722a7cc1-27de-4338-ba46-798913b242cf","$type":"Bolt.ControlConnection"},{"sourceUnit":{"$ref":"17"},"sourceKey":"value","destinationUnit":{"$ref":"14"},"destinationKey":"target","guid":"3b1a0786-32a4-4fa2-a506-c9e0c055562d","$type":"Bolt.ValueConnection"},{"sourceUnit":{"$ref":"14"},"sourceKey":"result","destinationUnit":{"$ref":"11"},"destinationKey":"input","guid":"5aa17e60-71e5-497b-97f6-4c6222fd4955","$type":"Bolt.ValueConnection"}],"$version":"A"}}'
    _objectReferences: []
