%YAML 1.1
%TAG !u! tag:unity3d.com,2011:
--- !u!114 &11400000
MonoBehaviour:
  m_ObjectHideFlags: 0
  m_CorrespondingSourceObject: {fileID: 0}
  m_PrefabInstance: {fileID: 0}
  m_PrefabAsset: {fileID: 0}
  m_GameObject: {fileID: 0}
  m_Enabled: 1
  m_EditorHideFlags: 0
  m_Script: {fileID: -1893448595, guid: a040fb66244a7f54289914d98ea4ef7d, type: 3}
  m_Name: fueltext
  m_EditorClassIdentifier: 
  _data:
    _json: '{"graph":{"variables":{"collection":{"$content":[],"$version":"A"},"$version":"A"},"controlInputDefinitions":[],"controlOutputDefinitions":[],"valueInputDefinitions":[],"valueOutputDefinitions":[],"title":null,"summary":null,"pan":{"x":-14.47058,"y":-224.7016},"zoom":0.85,"elements":[{"coroutine":false,"defaultValues":{},"position":{"x":-464.0,"y":-382.0},"guid":"371ae3b5-e0d2-4522-82b2-8679a1670f90","$version":"A","$type":"Bolt.Update","$id":"9"},{"specifyFallback":false,"kind":"Scene","defaultValues":{"name":{"$content":"fuel","$type":"System.String"}},"position":{"x":-332.0,"y":-283.0},"guid":"b5ae35d9-288c-4898-bf48-6925d5a747b2","$version":"A","$type":"Bolt.GetVariable","$id":"11"},{"chainable":false,"member":{"name":"text","parameterTypes":null,"targetType":"UnityEngine.UI.Text","targetTypeName":"UnityEngine.UI.Text","$version":"A"},"defaultValues":{"target":null,"input":{"$content":"","$type":"System.String"}},"position":{"x":-138.0,"y":-321.0},"guid":"918ad3e3-3c64-4002-81bb-9ba15fc15f71","$version":"A","$type":"Bolt.SetMember","$id":"13"},{"chainable":false,"member":{"name":"ToString","parameterTypes":[],"targetType":"System.Int32","targetTypeName":"System.Int32","$version":"A"},"defaultValues":{"target":{"$content":0,"$type":"System.Int32"}},"position":{"x":-293.0,"y":-385.0},"guid":"758fccd0-1b55-4b6e-8a4b-cd42e4c558bf","$version":"A","$type":"Bolt.InvokeMember","$id":"16"},{"sourceUnit":{"$ref":"9"},"sourceKey":"trigger","destinationUnit":{"$ref":"16"},"destinationKey":"enter","guid":"7ab0a042-ca8d-4117-b913-6f3c6c1b204a","$type":"Bolt.ControlConnection"},{"sourceUnit":{"$ref":"16"},"sourceKey":"exit","destinationUnit":{"$ref":"13"},"destinationKey":"assign","guid":"dc6ec3de-08d9-4eca-974f-1339ad50a957","$type":"Bolt.ControlConnection"},{"sourceUnit":{"$ref":"11"},"sourceKey":"value","destinationUnit":{"$ref":"16"},"destinationKey":"target","guid":"1e5d1383-4664-4992-86ce-e6ec6ec47c52","$type":"Bolt.ValueConnection"},{"sourceUnit":{"$ref":"16"},"sourceKey":"result","destinationUnit":{"$ref":"13"},"destinationKey":"input","guid":"49cb9b0b-13da-4502-a9c9-3f3dee4de956","$type":"Bolt.ValueConnection"}],"$version":"A"}}'
    _objectReferences: []
