%YAML 1.1
%TAG !u! tag:unity3d.com,2011:
--- !u!1045 &1
EditorBuildSettings:
  m_ObjectHideFlags: 0
  serializedVersion: 2
  m_Scenes:
  - enabled: 1
    path: Assets/Scenes/FirstLevel.unity
    guid: 9fc0d4010bbf28b4594072e72b8655ab
  - enabled: 1
    path: Assets/Scenes/SecondLevel.unity
    guid: 5d3203a2c45874c039b1504dccdf8e14
  - enabled: 1
    path: Assets/Scenes/ThirdLevel.unity
    guid: 96b4d9fcdc4814f8982d4bb43e113e59
  m_configObjects: {}
